<svg id="cloth_line_32px" xmlns="http://www.w3.org/2000/svg" xmlns:xlink="http://www.w3.org/1999/xlink" width="32" height="32" viewBox="0 0 32 32">
  <defs>
    <clipPath id="clip-path">
      <rect id="사각형_37853" data-name="사각형 37853" width="32" height="32" fill="none"/>
    </clipPath>
  </defs>
  <g id="그룹_172798" data-name="그룹 172798" clip-path="url(#clip-path)">
    <path id="패스_86811" data-name="패스 86811" d="M22.5,26.5H9.5v-13h-4v-7h7.492s2.073,4.21,3.016,4.21,3-4.21,3-4.21H26.5v7h-4Z" fill="none" stroke="#aaabad" stroke-linecap="round" stroke-linejoin="round" stroke-width="1.5"/>
  </g>
</svg>
