<svg id="appliances_line_32px" xmlns="http://www.w3.org/2000/svg" xmlns:xlink="http://www.w3.org/1999/xlink" width="32" height="32" viewBox="0 0 32 32">
  <defs>
    <clipPath id="clip-path">
      <rect id="사각형_37884" data-name="사각형 37884" width="32" height="32" fill="#aaabad"/>
    </clipPath>
  </defs>
  <g id="그룹_172909" data-name="그룹 172909" clip-path="url(#clip-path)">
    <path id="패스_86850" data-name="패스 86850" d="M11.5,9.234a.75.75,0,0,0,.75-.75v-2a.75.75,0,0,0-1.5,0v2a.75.75,0,0,0,.75.75" fill="#aaabad"/>
    <path id="패스_86851" data-name="패스 86851" d="M11.5,15.734a.75.75,0,0,0-.75.75v2a.75.75,0,0,0,1.5,0v-2a.75.75,0,0,0-.75-.75" fill="#aaabad"/>
    <path id="패스_86852" data-name="패스 86852" d="M23.5,2.734H8.5a.75.75,0,0,0-.75.75v25a.75.75,0,0,0,.75.75h15a.75.75,0,0,0,.75-.75v-25a.75.75,0,0,0-.75-.75M22.75,12.75H9.25V4.234h13.5Zm-13.5,1.5h13.5V27.734H9.25Z" fill="#aaabad"/>
  </g>
</svg>
