{
  "type": "service_account",
  "project_id": "bucheon-meta",
  "private_key_id": "8c435d19bd7e7cc3c3a8061db4666b6159119d60",
  "private_key": "-----BEGIN PRIVATE KEY-----\nMIIEvgIBADANBgkqhkiG9w0BAQEFAASCBKgwggSkAgEAAoIBAQC9oUEpc4jYeyYb\n06dFD5OWj1wjNJzHgEhfG03DO1hX09EeBNSvXgepIh3oJrXxcasjmvDyMTozzF65\nvOzNu3/fSu0rxXEpIHIy4Hrfefnh6f7ASPmm4T0YT2mZcVrpg3WxRmbPhqLeSFsC\naR0gQbR/Dx+CmN3PLBwF6PS3ag9kBgQeJJavqyrpB6niVkHaSkgkSx3oIFGbHSpU\n8wnehk+EAQIlrPtTVV00ev9yO3QgNRbAiVOuzP0vM1G+DKWYaFym4f7hmwLeYmCU\nwVjG1XtaOk8qag9D57T9JpIKBddmn00MibKlyQqTTM4A0T4TQCUg5HjafIjZJlkD\nwoRL5vuRAgMBAAECggEACXNpNjnoGtPuZwoiJsa7NhCAiM+lNasu0DCh7EY/pabs\nn+ihOfk/e/4zi9+sBzPBUgW1lvh9nFnF6c9g5PMAkT4gemM9e81+a4s1DIC9g7Ug\nCXDJonfMzfKdQnS8EXHIEpT96D9fTCFCiej3tuUXbBKyoRVhzqK15dSBp8d9K2Cs\nNEkjJCGLzfdgGWvg593nluhfQf1PaxBVTVguEvGWAsIaSB/2e9kcZfz0+eUWyZpC\nwWZ2+dxQSyS7zIB8XRoXW5e0zJ214D4nO+sftyADN2jG5PcCSEsFY4Nkw34u8MDU\nmOdWMU0TGELF2OPmF3Plvd/4FrUl1I14plhcTuX93QKBgQD9UB8vXiESMGu9lTKt\ntXxdy8j3Vv1TJbLp5UOQJKZsML8Xsl52RqgInI0Sthvwt5jH+k5GMmDd0MnhJfa8\nZaj4n75BPoneS72xYm6PvBQsn+7sC0dFdxzydFsjqg5EDjKVNGNM6TUzrIYPB8Md\nxg9fauFhxk2HEv60hKTCJDXCLQKBgQC/pDMactDHRDllyFSO+KJNRcx/iTwfA8SN\ni6/pt7Tmzj4Db1ld0R9ZpBvbTrkKTPWNK3AQp4bbUi7RbjCv9NA+ubeltOWk4VT0\n8mDsBJquD26xJZwOzqE0pin9xm4WW6z6zKc+AhPHb1HviNGy2/SpRyF727a74osC\nWSRAcJlRdQKBgQCZAuPDdgVd+leqTcwt95lnAuii1y3wIq5+8FiuYiUQ5yUWyEyc\n/zMS+JWSfuRDtHMaIM1VQ6sVcb/wO0FeLb4yaDPBL2iSGYg89Os58W7yQa1Nccac\nZEXdAoHm+hrh6v2M+PcehyP20bisrZCjlHbGuUXpDKLZ+5RVMGZhSwQaBQKBgGd+\nBRsDZjw2W8jbps6O9xdD2mwFcLJPFpZaGWXeD5OVTWgNefVwOb3vIhwNJ2CorvLN\nwnc8AVfvydjP6Psc+ljlcofKaTnhdj/RpQXQdrgJHX4NEXntnKESGxsxTcJFP+Ux\nICAcfxH0zArPmG8+2aGRCEQbI1PTw75A5ZLnO+UBAoGBALLlJxI4yNQmsfZQCiSX\numQk9HE0bT5cO+IN1Cb5PwIULPNkAE0nMw/Lar7QgVGqD6qmd+tAugR7QxVKBNWE\nnvxk0g9aH2Z3fXhBXsOAN4/RNrqNxXvy9eIN2iHfPJelwgBbHtUT4VQ8gxZ5ORL0\nIX/3W5IuiI51Sh2aLkmo6nG3\n-----END PRIVATE KEY-----\n",
  "client_email": "firebase-adminsdk-64i4i@bucheon-meta.iam.gserviceaccount.com",
  "client_id": "109796742763909406056",
  "auth_uri": "https://accounts.google.com/o/oauth2/auth",
  "token_uri": "https://oauth2.googleapis.com/token",
  "auth_provider_x509_cert_url": "https://www.googleapis.com/oauth2/v1/certs",
  "client_x509_cert_url": "https://www.googleapis.com/robot/v1/metadata/x509/firebase-adminsdk-64i4i%40bucheon-meta.iam.gserviceaccount.com"
}
